<session jtag_chain="USB-Blaster [USB-0]" jtag_device="@1: 10M50DA(.|ES)/10M50DC (0x031050DD)" sof_file="../brik_braker.sof">
  <display_tree gui_logging_enabled="0">
    <display_branch instance="auto_signaltap_0" log="USE_GLOBAL_TEMP" signal_set="USE_GLOBAL_TEMP" trigger="USE_GLOBAL_TEMP"/>
  </display_tree>
  <instance enabled="true" entity_name="sld_signaltap" is_auto_node="yes" is_expanded="true" name="auto_signaltap_0" source_file="sld_signaltap.vhd">
    <node_ip_info instance_id="0" mfg_id="110" node_id="0" version="6"/>
    <signal_set global_temp="1" is_expanded="true" name="signal_set: 2018/11/27 16:03:49  #0">
      <clock name="pll:my_pll|c0" polarity="posedge" tap_mode="classic"/>
      <config pipeline_level="0" ram_type="AUTO" reserved_data_nodes="0" reserved_storage_qualifier_nodes="0" reserved_trigger_nodes="0" sample_depth="1024" trigger_in_enable="no" trigger_out_enable="no"/>
      <top_entity/>
      <signal_vec>
        <trigger_input_vec>
          <wire name="horz_fsm:my_horz_fsm|ROW_NUM[0]" tap_mode="classic"/>
          <wire name="horz_fsm:my_horz_fsm|ROW_NUM[10]" tap_mode="classic"/>
          <wire name="horz_fsm:my_horz_fsm|ROW_NUM[11]" tap_mode="classic"/>
          <wire name="horz_fsm:my_horz_fsm|ROW_NUM[12]" tap_mode="classic"/>
          <wire name="horz_fsm:my_horz_fsm|ROW_NUM[13]" tap_mode="classic"/>
          <wire name="horz_fsm:my_horz_fsm|ROW_NUM[14]" tap_mode="classic"/>
          <wire name="horz_fsm:my_horz_fsm|ROW_NUM[15]" tap_mode="classic"/>
          <wire name="horz_fsm:my_horz_fsm|ROW_NUM[16]" tap_mode="classic"/>
          <wire name="horz_fsm:my_horz_fsm|ROW_NUM[17]" tap_mode="classic"/>
          <wire name="horz_fsm:my_horz_fsm|ROW_NUM[18]" tap_mode="classic"/>
          <wire name="horz_fsm:my_horz_fsm|ROW_NUM[19]" tap_mode="classic"/>
          <wire name="horz_fsm:my_horz_fsm|ROW_NUM[1]" tap_mode="classic"/>
          <wire name="horz_fsm:my_horz_fsm|ROW_NUM[20]" tap_mode="classic"/>
          <wire name="horz_fsm:my_horz_fsm|ROW_NUM[21]" tap_mode="classic"/>
          <wire name="horz_fsm:my_horz_fsm|ROW_NUM[22]" tap_mode="classic"/>
          <wire name="horz_fsm:my_horz_fsm|ROW_NUM[23]" tap_mode="classic"/>
          <wire name="horz_fsm:my_horz_fsm|ROW_NUM[24]" tap_mode="classic"/>
          <wire name="horz_fsm:my_horz_fsm|ROW_NUM[25]" tap_mode="classic"/>
          <wire name="horz_fsm:my_horz_fsm|ROW_NUM[26]" tap_mode="classic"/>
          <wire name="horz_fsm:my_horz_fsm|ROW_NUM[27]" tap_mode="classic"/>
          <wire name="horz_fsm:my_horz_fsm|ROW_NUM[28]" tap_mode="classic"/>
          <wire name="horz_fsm:my_horz_fsm|ROW_NUM[29]" tap_mode="classic"/>
          <wire name="horz_fsm:my_horz_fsm|ROW_NUM[2]" tap_mode="classic"/>
          <wire name="horz_fsm:my_horz_fsm|ROW_NUM[30]" tap_mode="classic"/>
          <wire name="horz_fsm:my_horz_fsm|ROW_NUM[3]" tap_mode="classic"/>
          <wire name="horz_fsm:my_horz_fsm|ROW_NUM[4]" tap_mode="classic"/>
          <wire name="horz_fsm:my_horz_fsm|ROW_NUM[5]" tap_mode="classic"/>
          <wire name="horz_fsm:my_horz_fsm|ROW_NUM[6]" tap_mode="classic"/>
          <wire name="horz_fsm:my_horz_fsm|ROW_NUM[7]" tap_mode="classic"/>
          <wire name="horz_fsm:my_horz_fsm|ROW_NUM[8]" tap_mode="classic"/>
          <wire name="horz_fsm:my_horz_fsm|ROW_NUM[9]" tap_mode="classic"/>
          <wire name="horz_fsm:my_horz_fsm|cstate.h_pixels" tap_mode="classic"/>
          <wire name="horz_fsm:my_horz_fsm|pixel[0]" tap_mode="classic"/>
          <wire name="horz_fsm:my_horz_fsm|pixel[10]" tap_mode="classic"/>
          <wire name="horz_fsm:my_horz_fsm|pixel[11]" tap_mode="classic"/>
          <wire name="horz_fsm:my_horz_fsm|pixel[12]" tap_mode="classic"/>
          <wire name="horz_fsm:my_horz_fsm|pixel[13]" tap_mode="classic"/>
          <wire name="horz_fsm:my_horz_fsm|pixel[14]" tap_mode="classic"/>
          <wire name="horz_fsm:my_horz_fsm|pixel[15]" tap_mode="classic"/>
          <wire name="horz_fsm:my_horz_fsm|pixel[16]" tap_mode="classic"/>
          <wire name="horz_fsm:my_horz_fsm|pixel[17]" tap_mode="classic"/>
          <wire name="horz_fsm:my_horz_fsm|pixel[18]" tap_mode="classic"/>
          <wire name="horz_fsm:my_horz_fsm|pixel[19]" tap_mode="classic"/>
          <wire name="horz_fsm:my_horz_fsm|pixel[1]" tap_mode="classic"/>
          <wire name="horz_fsm:my_horz_fsm|pixel[20]" tap_mode="classic"/>
          <wire name="horz_fsm:my_horz_fsm|pixel[21]" tap_mode="classic"/>
          <wire name="horz_fsm:my_horz_fsm|pixel[22]" tap_mode="classic"/>
          <wire name="horz_fsm:my_horz_fsm|pixel[23]" tap_mode="classic"/>
          <wire name="horz_fsm:my_horz_fsm|pixel[24]" tap_mode="classic"/>
          <wire name="horz_fsm:my_horz_fsm|pixel[25]" tap_mode="classic"/>
          <wire name="horz_fsm:my_horz_fsm|pixel[26]" tap_mode="classic"/>
          <wire name="horz_fsm:my_horz_fsm|pixel[27]" tap_mode="classic"/>
          <wire name="horz_fsm:my_horz_fsm|pixel[28]" tap_mode="classic"/>
          <wire name="horz_fsm:my_horz_fsm|pixel[29]" tap_mode="classic"/>
          <wire name="horz_fsm:my_horz_fsm|pixel[2]" tap_mode="classic"/>
          <wire name="horz_fsm:my_horz_fsm|pixel[30]" tap_mode="classic"/>
          <wire name="horz_fsm:my_horz_fsm|pixel[3]" tap_mode="classic"/>
          <wire name="horz_fsm:my_horz_fsm|pixel[4]" tap_mode="classic"/>
          <wire name="horz_fsm:my_horz_fsm|pixel[5]" tap_mode="classic"/>
          <wire name="horz_fsm:my_horz_fsm|pixel[6]" tap_mode="classic"/>
          <wire name="horz_fsm:my_horz_fsm|pixel[7]" tap_mode="classic"/>
          <wire name="horz_fsm:my_horz_fsm|pixel[8]" tap_mode="classic"/>
          <wire name="horz_fsm:my_horz_fsm|pixel[9]" tap_mode="classic"/>
          <wire name="vert_fsm:my_vert_fsm|cstate.v_pixels" tap_mode="classic"/>
        </trigger_input_vec>
        <data_input_vec>
          <wire name="horz_fsm:my_horz_fsm|ROW_NUM[0]" tap_mode="classic"/>
          <wire name="horz_fsm:my_horz_fsm|ROW_NUM[10]" tap_mode="classic"/>
          <wire name="horz_fsm:my_horz_fsm|ROW_NUM[11]" tap_mode="classic"/>
          <wire name="horz_fsm:my_horz_fsm|ROW_NUM[12]" tap_mode="classic"/>
          <wire name="horz_fsm:my_horz_fsm|ROW_NUM[13]" tap_mode="classic"/>
          <wire name="horz_fsm:my_horz_fsm|ROW_NUM[14]" tap_mode="classic"/>
          <wire name="horz_fsm:my_horz_fsm|ROW_NUM[15]" tap_mode="classic"/>
          <wire name="horz_fsm:my_horz_fsm|ROW_NUM[16]" tap_mode="classic"/>
          <wire name="horz_fsm:my_horz_fsm|ROW_NUM[17]" tap_mode="classic"/>
          <wire name="horz_fsm:my_horz_fsm|ROW_NUM[18]" tap_mode="classic"/>
          <wire name="horz_fsm:my_horz_fsm|ROW_NUM[19]" tap_mode="classic"/>
          <wire name="horz_fsm:my_horz_fsm|ROW_NUM[1]" tap_mode="classic"/>
          <wire name="horz_fsm:my_horz_fsm|ROW_NUM[20]" tap_mode="classic"/>
          <wire name="horz_fsm:my_horz_fsm|ROW_NUM[21]" tap_mode="classic"/>
          <wire name="horz_fsm:my_horz_fsm|ROW_NUM[22]" tap_mode="classic"/>
          <wire name="horz_fsm:my_horz_fsm|ROW_NUM[23]" tap_mode="classic"/>
          <wire name="horz_fsm:my_horz_fsm|ROW_NUM[24]" tap_mode="classic"/>
          <wire name="horz_fsm:my_horz_fsm|ROW_NUM[25]" tap_mode="classic"/>
          <wire name="horz_fsm:my_horz_fsm|ROW_NUM[26]" tap_mode="classic"/>
          <wire name="horz_fsm:my_horz_fsm|ROW_NUM[27]" tap_mode="classic"/>
          <wire name="horz_fsm:my_horz_fsm|ROW_NUM[28]" tap_mode="classic"/>
          <wire name="horz_fsm:my_horz_fsm|ROW_NUM[29]" tap_mode="classic"/>
          <wire name="horz_fsm:my_horz_fsm|ROW_NUM[2]" tap_mode="classic"/>
          <wire name="horz_fsm:my_horz_fsm|ROW_NUM[30]" tap_mode="classic"/>
          <wire name="horz_fsm:my_horz_fsm|ROW_NUM[3]" tap_mode="classic"/>
          <wire name="horz_fsm:my_horz_fsm|ROW_NUM[4]" tap_mode="classic"/>
          <wire name="horz_fsm:my_horz_fsm|ROW_NUM[5]" tap_mode="classic"/>
          <wire name="horz_fsm:my_horz_fsm|ROW_NUM[6]" tap_mode="classic"/>
          <wire name="horz_fsm:my_horz_fsm|ROW_NUM[7]" tap_mode="classic"/>
          <wire name="horz_fsm:my_horz_fsm|ROW_NUM[8]" tap_mode="classic"/>
          <wire name="horz_fsm:my_horz_fsm|ROW_NUM[9]" tap_mode="classic"/>
          <wire name="horz_fsm:my_horz_fsm|cstate.h_pixels" tap_mode="classic"/>
          <wire name="horz_fsm:my_horz_fsm|pixel[0]" tap_mode="classic"/>
          <wire name="horz_fsm:my_horz_fsm|pixel[10]" tap_mode="classic"/>
          <wire name="horz_fsm:my_horz_fsm|pixel[11]" tap_mode="classic"/>
          <wire name="horz_fsm:my_horz_fsm|pixel[12]" tap_mode="classic"/>
          <wire name="horz_fsm:my_horz_fsm|pixel[13]" tap_mode="classic"/>
          <wire name="horz_fsm:my_horz_fsm|pixel[14]" tap_mode="classic"/>
          <wire name="horz_fsm:my_horz_fsm|pixel[15]" tap_mode="classic"/>
          <wire name="horz_fsm:my_horz_fsm|pixel[16]" tap_mode="classic"/>
          <wire name="horz_fsm:my_horz_fsm|pixel[17]" tap_mode="classic"/>
          <wire name="horz_fsm:my_horz_fsm|pixel[18]" tap_mode="classic"/>
          <wire name="horz_fsm:my_horz_fsm|pixel[19]" tap_mode="classic"/>
          <wire name="horz_fsm:my_horz_fsm|pixel[1]" tap_mode="classic"/>
          <wire name="horz_fsm:my_horz_fsm|pixel[20]" tap_mode="classic"/>
          <wire name="horz_fsm:my_horz_fsm|pixel[21]" tap_mode="classic"/>
          <wire name="horz_fsm:my_horz_fsm|pixel[22]" tap_mode="classic"/>
          <wire name="horz_fsm:my_horz_fsm|pixel[23]" tap_mode="classic"/>
          <wire name="horz_fsm:my_horz_fsm|pixel[24]" tap_mode="classic"/>
          <wire name="horz_fsm:my_horz_fsm|pixel[25]" tap_mode="classic"/>
          <wire name="horz_fsm:my_horz_fsm|pixel[26]" tap_mode="classic"/>
          <wire name="horz_fsm:my_horz_fsm|pixel[27]" tap_mode="classic"/>
          <wire name="horz_fsm:my_horz_fsm|pixel[28]" tap_mode="classic"/>
          <wire name="horz_fsm:my_horz_fsm|pixel[29]" tap_mode="classic"/>
          <wire name="horz_fsm:my_horz_fsm|pixel[2]" tap_mode="classic"/>
          <wire name="horz_fsm:my_horz_fsm|pixel[30]" tap_mode="classic"/>
          <wire name="horz_fsm:my_horz_fsm|pixel[3]" tap_mode="classic"/>
          <wire name="horz_fsm:my_horz_fsm|pixel[4]" tap_mode="classic"/>
          <wire name="horz_fsm:my_horz_fsm|pixel[5]" tap_mode="classic"/>
          <wire name="horz_fsm:my_horz_fsm|pixel[6]" tap_mode="classic"/>
          <wire name="horz_fsm:my_horz_fsm|pixel[7]" tap_mode="classic"/>
          <wire name="horz_fsm:my_horz_fsm|pixel[8]" tap_mode="classic"/>
          <wire name="horz_fsm:my_horz_fsm|pixel[9]" tap_mode="classic"/>
          <wire name="vert_fsm:my_vert_fsm|cstate.v_pixels" tap_mode="classic"/>
        </data_input_vec>
        <storage_qualifier_input_vec>
          <wire name="horz_fsm:my_horz_fsm|ROW_NUM[0]" tap_mode="classic"/>
          <wire name="horz_fsm:my_horz_fsm|ROW_NUM[10]" tap_mode="classic"/>
          <wire name="horz_fsm:my_horz_fsm|ROW_NUM[11]" tap_mode="classic"/>
          <wire name="horz_fsm:my_horz_fsm|ROW_NUM[12]" tap_mode="classic"/>
          <wire name="horz_fsm:my_horz_fsm|ROW_NUM[13]" tap_mode="classic"/>
          <wire name="horz_fsm:my_horz_fsm|ROW_NUM[14]" tap_mode="classic"/>
          <wire name="horz_fsm:my_horz_fsm|ROW_NUM[15]" tap_mode="classic"/>
          <wire name="horz_fsm:my_horz_fsm|ROW_NUM[16]" tap_mode="classic"/>
          <wire name="horz_fsm:my_horz_fsm|ROW_NUM[17]" tap_mode="classic"/>
          <wire name="horz_fsm:my_horz_fsm|ROW_NUM[18]" tap_mode="classic"/>
          <wire name="horz_fsm:my_horz_fsm|ROW_NUM[19]" tap_mode="classic"/>
          <wire name="horz_fsm:my_horz_fsm|ROW_NUM[1]" tap_mode="classic"/>
          <wire name="horz_fsm:my_horz_fsm|ROW_NUM[20]" tap_mode="classic"/>
          <wire name="horz_fsm:my_horz_fsm|ROW_NUM[21]" tap_mode="classic"/>
          <wire name="horz_fsm:my_horz_fsm|ROW_NUM[22]" tap_mode="classic"/>
          <wire name="horz_fsm:my_horz_fsm|ROW_NUM[23]" tap_mode="classic"/>
          <wire name="horz_fsm:my_horz_fsm|ROW_NUM[24]" tap_mode="classic"/>
          <wire name="horz_fsm:my_horz_fsm|ROW_NUM[25]" tap_mode="classic"/>
          <wire name="horz_fsm:my_horz_fsm|ROW_NUM[26]" tap_mode="classic"/>
          <wire name="horz_fsm:my_horz_fsm|ROW_NUM[27]" tap_mode="classic"/>
          <wire name="horz_fsm:my_horz_fsm|ROW_NUM[28]" tap_mode="classic"/>
          <wire name="horz_fsm:my_horz_fsm|ROW_NUM[29]" tap_mode="classic"/>
          <wire name="horz_fsm:my_horz_fsm|ROW_NUM[2]" tap_mode="classic"/>
          <wire name="horz_fsm:my_horz_fsm|ROW_NUM[30]" tap_mode="classic"/>
          <wire name="horz_fsm:my_horz_fsm|ROW_NUM[3]" tap_mode="classic"/>
          <wire name="horz_fsm:my_horz_fsm|ROW_NUM[4]" tap_mode="classic"/>
          <wire name="horz_fsm:my_horz_fsm|ROW_NUM[5]" tap_mode="classic"/>
          <wire name="horz_fsm:my_horz_fsm|ROW_NUM[6]" tap_mode="classic"/>
          <wire name="horz_fsm:my_horz_fsm|ROW_NUM[7]" tap_mode="classic"/>
          <wire name="horz_fsm:my_horz_fsm|ROW_NUM[8]" tap_mode="classic"/>
          <wire name="horz_fsm:my_horz_fsm|ROW_NUM[9]" tap_mode="classic"/>
          <wire name="horz_fsm:my_horz_fsm|cstate.h_pixels" tap_mode="classic"/>
          <wire name="horz_fsm:my_horz_fsm|pixel[0]" tap_mode="classic"/>
          <wire name="horz_fsm:my_horz_fsm|pixel[10]" tap_mode="classic"/>
          <wire name="horz_fsm:my_horz_fsm|pixel[11]" tap_mode="classic"/>
          <wire name="horz_fsm:my_horz_fsm|pixel[12]" tap_mode="classic"/>
          <wire name="horz_fsm:my_horz_fsm|pixel[13]" tap_mode="classic"/>
          <wire name="horz_fsm:my_horz_fsm|pixel[14]" tap_mode="classic"/>
          <wire name="horz_fsm:my_horz_fsm|pixel[15]" tap_mode="classic"/>
          <wire name="horz_fsm:my_horz_fsm|pixel[16]" tap_mode="classic"/>
          <wire name="horz_fsm:my_horz_fsm|pixel[17]" tap_mode="classic"/>
          <wire name="horz_fsm:my_horz_fsm|pixel[18]" tap_mode="classic"/>
          <wire name="horz_fsm:my_horz_fsm|pixel[19]" tap_mode="classic"/>
          <wire name="horz_fsm:my_horz_fsm|pixel[1]" tap_mode="classic"/>
          <wire name="horz_fsm:my_horz_fsm|pixel[20]" tap_mode="classic"/>
          <wire name="horz_fsm:my_horz_fsm|pixel[21]" tap_mode="classic"/>
          <wire name="horz_fsm:my_horz_fsm|pixel[22]" tap_mode="classic"/>
          <wire name="horz_fsm:my_horz_fsm|pixel[23]" tap_mode="classic"/>
          <wire name="horz_fsm:my_horz_fsm|pixel[24]" tap_mode="classic"/>
          <wire name="horz_fsm:my_horz_fsm|pixel[25]" tap_mode="classic"/>
          <wire name="horz_fsm:my_horz_fsm|pixel[26]" tap_mode="classic"/>
          <wire name="horz_fsm:my_horz_fsm|pixel[27]" tap_mode="classic"/>
          <wire name="horz_fsm:my_horz_fsm|pixel[28]" tap_mode="classic"/>
          <wire name="horz_fsm:my_horz_fsm|pixel[29]" tap_mode="classic"/>
          <wire name="horz_fsm:my_horz_fsm|pixel[2]" tap_mode="classic"/>
          <wire name="horz_fsm:my_horz_fsm|pixel[30]" tap_mode="classic"/>
          <wire name="horz_fsm:my_horz_fsm|pixel[3]" tap_mode="classic"/>
          <wire name="horz_fsm:my_horz_fsm|pixel[4]" tap_mode="classic"/>
          <wire name="horz_fsm:my_horz_fsm|pixel[5]" tap_mode="classic"/>
          <wire name="horz_fsm:my_horz_fsm|pixel[6]" tap_mode="classic"/>
          <wire name="horz_fsm:my_horz_fsm|pixel[7]" tap_mode="classic"/>
          <wire name="horz_fsm:my_horz_fsm|pixel[8]" tap_mode="classic"/>
          <wire name="horz_fsm:my_horz_fsm|pixel[9]" tap_mode="classic"/>
          <wire name="vert_fsm:my_vert_fsm|cstate.v_pixels" tap_mode="classic"/>
        </storage_qualifier_input_vec>
      </signal_vec>
      <presentation>
        <unified_setup_data_view>
          <node data_index="31" duplicate_name_allowed="false" is_data_input="true" is_node_valid="true" is_selected="false" is_storage_input="true" is_trigger_input="true" level-0="dont_care" name="horz_fsm:my_horz_fsm|cstate.h_pixels" storage_index="31" tap_mode="classic" trigger_index="31" type="unknown"/>
          <node is_selected="false" level-0="alt_or" name="horz_fsm:my_horz_fsm|ROW_NUM[30..0]" order="msb_to_lsb" radix="unsigned_dec" type="combinatorial">
            <node data_index="23" duplicate_name_allowed="false" is_data_input="true" is_node_valid="true" is_selected="false" is_storage_input="true" is_trigger_input="true" name="horz_fsm:my_horz_fsm|ROW_NUM[30]" storage_index="23" tap_mode="classic" trigger_index="23" type="unknown"/>
            <node data_index="21" duplicate_name_allowed="false" is_data_input="true" is_node_valid="true" is_selected="false" is_storage_input="true" is_trigger_input="true" name="horz_fsm:my_horz_fsm|ROW_NUM[29]" storage_index="21" tap_mode="classic" trigger_index="21" type="unknown"/>
            <node data_index="20" duplicate_name_allowed="false" is_data_input="true" is_node_valid="true" is_selected="false" is_storage_input="true" is_trigger_input="true" name="horz_fsm:my_horz_fsm|ROW_NUM[28]" storage_index="20" tap_mode="classic" trigger_index="20" type="unknown"/>
            <node data_index="19" duplicate_name_allowed="false" is_data_input="true" is_node_valid="true" is_selected="false" is_storage_input="true" is_trigger_input="true" name="horz_fsm:my_horz_fsm|ROW_NUM[27]" storage_index="19" tap_mode="classic" trigger_index="19" type="unknown"/>
            <node data_index="18" duplicate_name_allowed="false" is_data_input="true" is_node_valid="true" is_selected="false" is_storage_input="true" is_trigger_input="true" name="horz_fsm:my_horz_fsm|ROW_NUM[26]" storage_index="18" tap_mode="classic" trigger_index="18" type="unknown"/>
            <node data_index="17" duplicate_name_allowed="false" is_data_input="true" is_node_valid="true" is_selected="false" is_storage_input="true" is_trigger_input="true" name="horz_fsm:my_horz_fsm|ROW_NUM[25]" storage_index="17" tap_mode="classic" trigger_index="17" type="unknown"/>
            <node data_index="16" duplicate_name_allowed="false" is_data_input="true" is_node_valid="true" is_selected="false" is_storage_input="true" is_trigger_input="true" name="horz_fsm:my_horz_fsm|ROW_NUM[24]" storage_index="16" tap_mode="classic" trigger_index="16" type="unknown"/>
            <node data_index="15" duplicate_name_allowed="false" is_data_input="true" is_node_valid="true" is_selected="false" is_storage_input="true" is_trigger_input="true" name="horz_fsm:my_horz_fsm|ROW_NUM[23]" storage_index="15" tap_mode="classic" trigger_index="15" type="unknown"/>
            <node data_index="14" duplicate_name_allowed="false" is_data_input="true" is_node_valid="true" is_selected="false" is_storage_input="true" is_trigger_input="true" name="horz_fsm:my_horz_fsm|ROW_NUM[22]" storage_index="14" tap_mode="classic" trigger_index="14" type="unknown"/>
            <node data_index="13" duplicate_name_allowed="false" is_data_input="true" is_node_valid="true" is_selected="false" is_storage_input="true" is_trigger_input="true" name="horz_fsm:my_horz_fsm|ROW_NUM[21]" storage_index="13" tap_mode="classic" trigger_index="13" type="unknown"/>
            <node data_index="12" duplicate_name_allowed="false" is_data_input="true" is_node_valid="true" is_selected="false" is_storage_input="true" is_trigger_input="true" name="horz_fsm:my_horz_fsm|ROW_NUM[20]" storage_index="12" tap_mode="classic" trigger_index="12" type="unknown"/>
            <node data_index="10" duplicate_name_allowed="false" is_data_input="true" is_node_valid="true" is_selected="false" is_storage_input="true" is_trigger_input="true" name="horz_fsm:my_horz_fsm|ROW_NUM[19]" storage_index="10" tap_mode="classic" trigger_index="10" type="unknown"/>
            <node data_index="9" duplicate_name_allowed="false" is_data_input="true" is_node_valid="true" is_selected="false" is_storage_input="true" is_trigger_input="true" name="horz_fsm:my_horz_fsm|ROW_NUM[18]" storage_index="9" tap_mode="classic" trigger_index="9" type="unknown"/>
            <node data_index="8" duplicate_name_allowed="false" is_data_input="true" is_node_valid="true" is_selected="false" is_storage_input="true" is_trigger_input="true" name="horz_fsm:my_horz_fsm|ROW_NUM[17]" storage_index="8" tap_mode="classic" trigger_index="8" type="unknown"/>
            <node data_index="7" duplicate_name_allowed="false" is_data_input="true" is_node_valid="true" is_selected="false" is_storage_input="true" is_trigger_input="true" name="horz_fsm:my_horz_fsm|ROW_NUM[16]" storage_index="7" tap_mode="classic" trigger_index="7" type="unknown"/>
            <node data_index="6" duplicate_name_allowed="false" is_data_input="true" is_node_valid="true" is_selected="false" is_storage_input="true" is_trigger_input="true" name="horz_fsm:my_horz_fsm|ROW_NUM[15]" storage_index="6" tap_mode="classic" trigger_index="6" type="unknown"/>
            <node data_index="5" duplicate_name_allowed="false" is_data_input="true" is_node_valid="true" is_selected="false" is_storage_input="true" is_trigger_input="true" name="horz_fsm:my_horz_fsm|ROW_NUM[14]" storage_index="5" tap_mode="classic" trigger_index="5" type="unknown"/>
            <node data_index="4" duplicate_name_allowed="false" is_data_input="true" is_node_valid="true" is_selected="false" is_storage_input="true" is_trigger_input="true" name="horz_fsm:my_horz_fsm|ROW_NUM[13]" storage_index="4" tap_mode="classic" trigger_index="4" type="unknown"/>
            <node data_index="3" duplicate_name_allowed="false" is_data_input="true" is_node_valid="true" is_selected="false" is_storage_input="true" is_trigger_input="true" name="horz_fsm:my_horz_fsm|ROW_NUM[12]" storage_index="3" tap_mode="classic" trigger_index="3" type="unknown"/>
            <node data_index="2" duplicate_name_allowed="false" is_data_input="true" is_node_valid="true" is_selected="false" is_storage_input="true" is_trigger_input="true" name="horz_fsm:my_horz_fsm|ROW_NUM[11]" storage_index="2" tap_mode="classic" trigger_index="2" type="unknown"/>
            <node data_index="1" duplicate_name_allowed="false" is_data_input="true" is_node_valid="true" is_selected="false" is_storage_input="true" is_trigger_input="true" name="horz_fsm:my_horz_fsm|ROW_NUM[10]" storage_index="1" tap_mode="classic" trigger_index="1" type="unknown"/>
            <node data_index="30" duplicate_name_allowed="false" is_data_input="true" is_node_valid="true" is_selected="false" is_storage_input="true" is_trigger_input="true" name="horz_fsm:my_horz_fsm|ROW_NUM[9]" storage_index="30" tap_mode="classic" trigger_index="30" type="unknown"/>
            <node data_index="29" duplicate_name_allowed="false" is_data_input="true" is_node_valid="true" is_selected="false" is_storage_input="true" is_trigger_input="true" name="horz_fsm:my_horz_fsm|ROW_NUM[8]" storage_index="29" tap_mode="classic" trigger_index="29" type="unknown"/>
            <node data_index="28" duplicate_name_allowed="false" is_data_input="true" is_node_valid="true" is_selected="false" is_storage_input="true" is_trigger_input="true" name="horz_fsm:my_horz_fsm|ROW_NUM[7]" storage_index="28" tap_mode="classic" trigger_index="28" type="unknown"/>
            <node data_index="27" duplicate_name_allowed="false" is_data_input="true" is_node_valid="true" is_selected="false" is_storage_input="true" is_trigger_input="true" name="horz_fsm:my_horz_fsm|ROW_NUM[6]" storage_index="27" tap_mode="classic" trigger_index="27" type="unknown"/>
            <node data_index="26" duplicate_name_allowed="false" is_data_input="true" is_node_valid="true" is_selected="false" is_storage_input="true" is_trigger_input="true" name="horz_fsm:my_horz_fsm|ROW_NUM[5]" storage_index="26" tap_mode="classic" trigger_index="26" type="unknown"/>
            <node data_index="25" duplicate_name_allowed="false" is_data_input="true" is_node_valid="true" is_selected="false" is_storage_input="true" is_trigger_input="true" name="horz_fsm:my_horz_fsm|ROW_NUM[4]" storage_index="25" tap_mode="classic" trigger_index="25" type="unknown"/>
            <node data_index="24" duplicate_name_allowed="false" is_data_input="true" is_node_valid="true" is_selected="false" is_storage_input="true" is_trigger_input="true" name="horz_fsm:my_horz_fsm|ROW_NUM[3]" storage_index="24" tap_mode="classic" trigger_index="24" type="unknown"/>
            <node data_index="22" duplicate_name_allowed="false" is_data_input="true" is_node_valid="true" is_selected="false" is_storage_input="true" is_trigger_input="true" name="horz_fsm:my_horz_fsm|ROW_NUM[2]" storage_index="22" tap_mode="classic" trigger_index="22" type="unknown"/>
            <node data_index="11" duplicate_name_allowed="false" is_data_input="true" is_node_valid="true" is_selected="false" is_storage_input="true" is_trigger_input="true" name="horz_fsm:my_horz_fsm|ROW_NUM[1]" storage_index="11" tap_mode="classic" trigger_index="11" type="unknown"/>
            <node data_index="0" duplicate_name_allowed="false" is_data_input="true" is_node_valid="true" is_selected="false" is_storage_input="true" is_trigger_input="true" name="horz_fsm:my_horz_fsm|ROW_NUM[0]" storage_index="0" tap_mode="classic" trigger_index="0" type="unknown"/>
          </node>
          <node is_selected="false" level-0="alt_or" name="horz_fsm:my_horz_fsm|pixel[30..0]" order="msb_to_lsb" radix="unsigned_dec" type="register">
            <node data_index="55" duplicate_name_allowed="false" is_data_input="true" is_node_valid="true" is_selected="false" is_storage_input="true" is_trigger_input="true" name="horz_fsm:my_horz_fsm|pixel[30]" storage_index="55" tap_mode="classic" trigger_index="55" type="unknown"/>
            <node data_index="53" duplicate_name_allowed="false" is_data_input="true" is_node_valid="true" is_selected="false" is_storage_input="true" is_trigger_input="true" name="horz_fsm:my_horz_fsm|pixel[29]" storage_index="53" tap_mode="classic" trigger_index="53" type="unknown"/>
            <node data_index="52" duplicate_name_allowed="false" is_data_input="true" is_node_valid="true" is_selected="false" is_storage_input="true" is_trigger_input="true" name="horz_fsm:my_horz_fsm|pixel[28]" storage_index="52" tap_mode="classic" trigger_index="52" type="unknown"/>
            <node data_index="51" duplicate_name_allowed="false" is_data_input="true" is_node_valid="true" is_selected="false" is_storage_input="true" is_trigger_input="true" name="horz_fsm:my_horz_fsm|pixel[27]" storage_index="51" tap_mode="classic" trigger_index="51" type="unknown"/>
            <node data_index="50" duplicate_name_allowed="false" is_data_input="true" is_node_valid="true" is_selected="false" is_storage_input="true" is_trigger_input="true" name="horz_fsm:my_horz_fsm|pixel[26]" storage_index="50" tap_mode="classic" trigger_index="50" type="unknown"/>
            <node data_index="49" duplicate_name_allowed="false" is_data_input="true" is_node_valid="true" is_selected="false" is_storage_input="true" is_trigger_input="true" name="horz_fsm:my_horz_fsm|pixel[25]" storage_index="49" tap_mode="classic" trigger_index="49" type="unknown"/>
            <node data_index="48" duplicate_name_allowed="false" is_data_input="true" is_node_valid="true" is_selected="false" is_storage_input="true" is_trigger_input="true" name="horz_fsm:my_horz_fsm|pixel[24]" storage_index="48" tap_mode="classic" trigger_index="48" type="unknown"/>
            <node data_index="47" duplicate_name_allowed="false" is_data_input="true" is_node_valid="true" is_selected="false" is_storage_input="true" is_trigger_input="true" name="horz_fsm:my_horz_fsm|pixel[23]" storage_index="47" tap_mode="classic" trigger_index="47" type="unknown"/>
            <node data_index="46" duplicate_name_allowed="false" is_data_input="true" is_node_valid="true" is_selected="false" is_storage_input="true" is_trigger_input="true" name="horz_fsm:my_horz_fsm|pixel[22]" storage_index="46" tap_mode="classic" trigger_index="46" type="unknown"/>
            <node data_index="45" duplicate_name_allowed="false" is_data_input="true" is_node_valid="true" is_selected="false" is_storage_input="true" is_trigger_input="true" name="horz_fsm:my_horz_fsm|pixel[21]" storage_index="45" tap_mode="classic" trigger_index="45" type="unknown"/>
            <node data_index="44" duplicate_name_allowed="false" is_data_input="true" is_node_valid="true" is_selected="false" is_storage_input="true" is_trigger_input="true" name="horz_fsm:my_horz_fsm|pixel[20]" storage_index="44" tap_mode="classic" trigger_index="44" type="unknown"/>
            <node data_index="42" duplicate_name_allowed="false" is_data_input="true" is_node_valid="true" is_selected="false" is_storage_input="true" is_trigger_input="true" name="horz_fsm:my_horz_fsm|pixel[19]" storage_index="42" tap_mode="classic" trigger_index="42" type="unknown"/>
            <node data_index="41" duplicate_name_allowed="false" is_data_input="true" is_node_valid="true" is_selected="false" is_storage_input="true" is_trigger_input="true" name="horz_fsm:my_horz_fsm|pixel[18]" storage_index="41" tap_mode="classic" trigger_index="41" type="unknown"/>
            <node data_index="40" duplicate_name_allowed="false" is_data_input="true" is_node_valid="true" is_selected="false" is_storage_input="true" is_trigger_input="true" name="horz_fsm:my_horz_fsm|pixel[17]" storage_index="40" tap_mode="classic" trigger_index="40" type="unknown"/>
            <node data_index="39" duplicate_name_allowed="false" is_data_input="true" is_node_valid="true" is_selected="false" is_storage_input="true" is_trigger_input="true" name="horz_fsm:my_horz_fsm|pixel[16]" storage_index="39" tap_mode="classic" trigger_index="39" type="unknown"/>
            <node data_index="38" duplicate_name_allowed="false" is_data_input="true" is_node_valid="true" is_selected="false" is_storage_input="true" is_trigger_input="true" name="horz_fsm:my_horz_fsm|pixel[15]" storage_index="38" tap_mode="classic" trigger_index="38" type="unknown"/>
            <node data_index="37" duplicate_name_allowed="false" is_data_input="true" is_node_valid="true" is_selected="false" is_storage_input="true" is_trigger_input="true" name="horz_fsm:my_horz_fsm|pixel[14]" storage_index="37" tap_mode="classic" trigger_index="37" type="unknown"/>
            <node data_index="36" duplicate_name_allowed="false" is_data_input="true" is_node_valid="true" is_selected="false" is_storage_input="true" is_trigger_input="true" name="horz_fsm:my_horz_fsm|pixel[13]" storage_index="36" tap_mode="classic" trigger_index="36" type="unknown"/>
            <node data_index="35" duplicate_name_allowed="false" is_data_input="true" is_node_valid="true" is_selected="false" is_storage_input="true" is_trigger_input="true" name="horz_fsm:my_horz_fsm|pixel[12]" storage_index="35" tap_mode="classic" trigger_index="35" type="unknown"/>
            <node data_index="34" duplicate_name_allowed="false" is_data_input="true" is_node_valid="true" is_selected="false" is_storage_input="true" is_trigger_input="true" name="horz_fsm:my_horz_fsm|pixel[11]" storage_index="34" tap_mode="classic" trigger_index="34" type="unknown"/>
            <node data_index="33" duplicate_name_allowed="false" is_data_input="true" is_node_valid="true" is_selected="false" is_storage_input="true" is_trigger_input="true" name="horz_fsm:my_horz_fsm|pixel[10]" storage_index="33" tap_mode="classic" trigger_index="33" type="unknown"/>
            <node data_index="62" duplicate_name_allowed="false" is_data_input="true" is_node_valid="true" is_selected="false" is_storage_input="true" is_trigger_input="true" name="horz_fsm:my_horz_fsm|pixel[9]" storage_index="62" tap_mode="classic" trigger_index="62" type="unknown"/>
            <node data_index="61" duplicate_name_allowed="false" is_data_input="true" is_node_valid="true" is_selected="false" is_storage_input="true" is_trigger_input="true" name="horz_fsm:my_horz_fsm|pixel[8]" storage_index="61" tap_mode="classic" trigger_index="61" type="unknown"/>
            <node data_index="60" duplicate_name_allowed="false" is_data_input="true" is_node_valid="true" is_selected="false" is_storage_input="true" is_trigger_input="true" name="horz_fsm:my_horz_fsm|pixel[7]" storage_index="60" tap_mode="classic" trigger_index="60" type="unknown"/>
            <node data_index="59" duplicate_name_allowed="false" is_data_input="true" is_node_valid="true" is_selected="false" is_storage_input="true" is_trigger_input="true" name="horz_fsm:my_horz_fsm|pixel[6]" storage_index="59" tap_mode="classic" trigger_index="59" type="unknown"/>
            <node data_index="58" duplicate_name_allowed="false" is_data_input="true" is_node_valid="true" is_selected="false" is_storage_input="true" is_trigger_input="true" name="horz_fsm:my_horz_fsm|pixel[5]" storage_index="58" tap_mode="classic" trigger_index="58" type="unknown"/>
            <node data_index="57" duplicate_name_allowed="false" is_data_input="true" is_node_valid="true" is_selected="false" is_storage_input="true" is_trigger_input="true" name="horz_fsm:my_horz_fsm|pixel[4]" storage_index="57" tap_mode="classic" trigger_index="57" type="unknown"/>
            <node data_index="56" duplicate_name_allowed="false" is_data_input="true" is_node_valid="true" is_selected="false" is_storage_input="true" is_trigger_input="true" name="horz_fsm:my_horz_fsm|pixel[3]" storage_index="56" tap_mode="classic" trigger_index="56" type="unknown"/>
            <node data_index="54" duplicate_name_allowed="false" is_data_input="true" is_node_valid="true" is_selected="false" is_storage_input="true" is_trigger_input="true" name="horz_fsm:my_horz_fsm|pixel[2]" storage_index="54" tap_mode="classic" trigger_index="54" type="unknown"/>
            <node data_index="43" duplicate_name_allowed="false" is_data_input="true" is_node_valid="true" is_selected="false" is_storage_input="true" is_trigger_input="true" name="horz_fsm:my_horz_fsm|pixel[1]" storage_index="43" tap_mode="classic" trigger_index="43" type="unknown"/>
            <node data_index="32" duplicate_name_allowed="false" is_data_input="true" is_node_valid="true" is_selected="false" is_storage_input="true" is_trigger_input="true" name="horz_fsm:my_horz_fsm|pixel[0]" storage_index="32" tap_mode="classic" trigger_index="32" type="unknown"/>
          </node>
          <node data_index="63" duplicate_name_allowed="false" is_data_input="true" is_node_valid="true" is_selected="false" is_storage_input="true" is_trigger_input="true" level-0="rising edge" name="vert_fsm:my_vert_fsm|cstate.v_pixels" storage_index="63" tap_mode="classic" trigger_index="63" type="unknown"/>
        </unified_setup_data_view>
        <data_view>
          <net data_index="31" duplicate_name_allowed="false" is_data_input="true" is_node_valid="true" is_selected="false" is_storage_input="true" is_trigger_input="true" level-0="dont_care" name="horz_fsm:my_horz_fsm|cstate.h_pixels" storage_index="31" tap_mode="classic" trigger_index="31" type="unknown"/>
          <bus is_selected="false" level-0="alt_or" name="horz_fsm:my_horz_fsm|ROW_NUM[30..0]" order="msb_to_lsb" radix="unsigned_dec" type="combinatorial">
            <net data_index="23" duplicate_name_allowed="false" is_data_input="true" is_node_valid="true" is_selected="false" is_storage_input="true" is_trigger_input="true" name="horz_fsm:my_horz_fsm|ROW_NUM[30]" storage_index="23" tap_mode="classic" trigger_index="23" type="unknown"/>
            <net data_index="21" duplicate_name_allowed="false" is_data_input="true" is_node_valid="true" is_selected="false" is_storage_input="true" is_trigger_input="true" name="horz_fsm:my_horz_fsm|ROW_NUM[29]" storage_index="21" tap_mode="classic" trigger_index="21" type="unknown"/>
            <net data_index="20" duplicate_name_allowed="false" is_data_input="true" is_node_valid="true" is_selected="false" is_storage_input="true" is_trigger_input="true" name="horz_fsm:my_horz_fsm|ROW_NUM[28]" storage_index="20" tap_mode="classic" trigger_index="20" type="unknown"/>
            <net data_index="19" duplicate_name_allowed="false" is_data_input="true" is_node_valid="true" is_selected="false" is_storage_input="true" is_trigger_input="true" name="horz_fsm:my_horz_fsm|ROW_NUM[27]" storage_index="19" tap_mode="classic" trigger_index="19" type="unknown"/>
            <net data_index="18" duplicate_name_allowed="false" is_data_input="true" is_node_valid="true" is_selected="false" is_storage_input="true" is_trigger_input="true" name="horz_fsm:my_horz_fsm|ROW_NUM[26]" storage_index="18" tap_mode="classic" trigger_index="18" type="unknown"/>
            <net data_index="17" duplicate_name_allowed="false" is_data_input="true" is_node_valid="true" is_selected="false" is_storage_input="true" is_trigger_input="true" name="horz_fsm:my_horz_fsm|ROW_NUM[25]" storage_index="17" tap_mode="classic" trigger_index="17" type="unknown"/>
            <net data_index="16" duplicate_name_allowed="false" is_data_input="true" is_node_valid="true" is_selected="false" is_storage_input="true" is_trigger_input="true" name="horz_fsm:my_horz_fsm|ROW_NUM[24]" storage_index="16" tap_mode="classic" trigger_index="16" type="unknown"/>
            <net data_index="15" duplicate_name_allowed="false" is_data_input="true" is_node_valid="true" is_selected="false" is_storage_input="true" is_trigger_input="true" name="horz_fsm:my_horz_fsm|ROW_NUM[23]" storage_index="15" tap_mode="classic" trigger_index="15" type="unknown"/>
            <net data_index="14" duplicate_name_allowed="false" is_data_input="true" is_node_valid="true" is_selected="false" is_storage_input="true" is_trigger_input="true" name="horz_fsm:my_horz_fsm|ROW_NUM[22]" storage_index="14" tap_mode="classic" trigger_index="14" type="unknown"/>
            <net data_index="13" duplicate_name_allowed="false" is_data_input="true" is_node_valid="true" is_selected="false" is_storage_input="true" is_trigger_input="true" name="horz_fsm:my_horz_fsm|ROW_NUM[21]" storage_index="13" tap_mode="classic" trigger_index="13" type="unknown"/>
            <net data_index="12" duplicate_name_allowed="false" is_data_input="true" is_node_valid="true" is_selected="false" is_storage_input="true" is_trigger_input="true" name="horz_fsm:my_horz_fsm|ROW_NUM[20]" storage_index="12" tap_mode="classic" trigger_index="12" type="unknown"/>
            <net data_index="10" duplicate_name_allowed="false" is_data_input="true" is_node_valid="true" is_selected="false" is_storage_input="true" is_trigger_input="true" name="horz_fsm:my_horz_fsm|ROW_NUM[19]" storage_index="10" tap_mode="classic" trigger_index="10" type="unknown"/>
            <net data_index="9" duplicate_name_allowed="false" is_data_input="true" is_node_valid="true" is_selected="false" is_storage_input="true" is_trigger_input="true" name="horz_fsm:my_horz_fsm|ROW_NUM[18]" storage_index="9" tap_mode="classic" trigger_index="9" type="unknown"/>
            <net data_index="8" duplicate_name_allowed="false" is_data_input="true" is_node_valid="true" is_selected="false" is_storage_input="true" is_trigger_input="true" name="horz_fsm:my_horz_fsm|ROW_NUM[17]" storage_index="8" tap_mode="classic" trigger_index="8" type="unknown"/>
            <net data_index="7" duplicate_name_allowed="false" is_data_input="true" is_node_valid="true" is_selected="false" is_storage_input="true" is_trigger_input="true" name="horz_fsm:my_horz_fsm|ROW_NUM[16]" storage_index="7" tap_mode="classic" trigger_index="7" type="unknown"/>
            <net data_index="6" duplicate_name_allowed="false" is_data_input="true" is_node_valid="true" is_selected="false" is_storage_input="true" is_trigger_input="true" name="horz_fsm:my_horz_fsm|ROW_NUM[15]" storage_index="6" tap_mode="classic" trigger_index="6" type="unknown"/>
            <net data_index="5" duplicate_name_allowed="false" is_data_input="true" is_node_valid="true" is_selected="false" is_storage_input="true" is_trigger_input="true" name="horz_fsm:my_horz_fsm|ROW_NUM[14]" storage_index="5" tap_mode="classic" trigger_index="5" type="unknown"/>
            <net data_index="4" duplicate_name_allowed="false" is_data_input="true" is_node_valid="true" is_selected="false" is_storage_input="true" is_trigger_input="true" name="horz_fsm:my_horz_fsm|ROW_NUM[13]" storage_index="4" tap_mode="classic" trigger_index="4" type="unknown"/>
            <net data_index="3" duplicate_name_allowed="false" is_data_input="true" is_node_valid="true" is_selected="false" is_storage_input="true" is_trigger_input="true" name="horz_fsm:my_horz_fsm|ROW_NUM[12]" storage_index="3" tap_mode="classic" trigger_index="3" type="unknown"/>
            <net data_index="2" duplicate_name_allowed="false" is_data_input="true" is_node_valid="true" is_selected="false" is_storage_input="true" is_trigger_input="true" name="horz_fsm:my_horz_fsm|ROW_NUM[11]" storage_index="2" tap_mode="classic" trigger_index="2" type="unknown"/>
            <net data_index="1" duplicate_name_allowed="false" is_data_input="true" is_node_valid="true" is_selected="false" is_storage_input="true" is_trigger_input="true" name="horz_fsm:my_horz_fsm|ROW_NUM[10]" storage_index="1" tap_mode="classic" trigger_index="1" type="unknown"/>
            <net data_index="30" duplicate_name_allowed="false" is_data_input="true" is_node_valid="true" is_selected="false" is_storage_input="true" is_trigger_input="true" name="horz_fsm:my_horz_fsm|ROW_NUM[9]" storage_index="30" tap_mode="classic" trigger_index="30" type="unknown"/>
            <net data_index="29" duplicate_name_allowed="false" is_data_input="true" is_node_valid="true" is_selected="false" is_storage_input="true" is_trigger_input="true" name="horz_fsm:my_horz_fsm|ROW_NUM[8]" storage_index="29" tap_mode="classic" trigger_index="29" type="unknown"/>
            <net data_index="28" duplicate_name_allowed="false" is_data_input="true" is_node_valid="true" is_selected="false" is_storage_input="true" is_trigger_input="true" name="horz_fsm:my_horz_fsm|ROW_NUM[7]" storage_index="28" tap_mode="classic" trigger_index="28" type="unknown"/>
            <net data_index="27" duplicate_name_allowed="false" is_data_input="true" is_node_valid="true" is_selected="false" is_storage_input="true" is_trigger_input="true" name="horz_fsm:my_horz_fsm|ROW_NUM[6]" storage_index="27" tap_mode="classic" trigger_index="27" type="unknown"/>
            <net data_index="26" duplicate_name_allowed="false" is_data_input="true" is_node_valid="true" is_selected="false" is_storage_input="true" is_trigger_input="true" name="horz_fsm:my_horz_fsm|ROW_NUM[5]" storage_index="26" tap_mode="classic" trigger_index="26" type="unknown"/>
            <net data_index="25" duplicate_name_allowed="false" is_data_input="true" is_node_valid="true" is_selected="false" is_storage_input="true" is_trigger_input="true" name="horz_fsm:my_horz_fsm|ROW_NUM[4]" storage_index="25" tap_mode="classic" trigger_index="25" type="unknown"/>
            <net data_index="24" duplicate_name_allowed="false" is_data_input="true" is_node_valid="true" is_selected="false" is_storage_input="true" is_trigger_input="true" name="horz_fsm:my_horz_fsm|ROW_NUM[3]" storage_index="24" tap_mode="classic" trigger_index="24" type="unknown"/>
            <net data_index="22" duplicate_name_allowed="false" is_data_input="true" is_node_valid="true" is_selected="false" is_storage_input="true" is_trigger_input="true" name="horz_fsm:my_horz_fsm|ROW_NUM[2]" storage_index="22" tap_mode="classic" trigger_index="22" type="unknown"/>
            <net data_index="11" duplicate_name_allowed="false" is_data_input="true" is_node_valid="true" is_selected="false" is_storage_input="true" is_trigger_input="true" name="horz_fsm:my_horz_fsm|ROW_NUM[1]" storage_index="11" tap_mode="classic" trigger_index="11" type="unknown"/>
            <net data_index="0" duplicate_name_allowed="false" is_data_input="true" is_node_valid="true" is_selected="false" is_storage_input="true" is_trigger_input="true" name="horz_fsm:my_horz_fsm|ROW_NUM[0]" storage_index="0" tap_mode="classic" trigger_index="0" type="unknown"/>
          </bus>
          <bus is_selected="false" level-0="alt_or" name="horz_fsm:my_horz_fsm|pixel[30..0]" order="msb_to_lsb" radix="unsigned_dec" type="register">
            <net data_index="55" duplicate_name_allowed="false" is_data_input="true" is_node_valid="true" is_selected="false" is_storage_input="true" is_trigger_input="true" name="horz_fsm:my_horz_fsm|pixel[30]" storage_index="55" tap_mode="classic" trigger_index="55" type="unknown"/>
            <net data_index="53" duplicate_name_allowed="false" is_data_input="true" is_node_valid="true" is_selected="false" is_storage_input="true" is_trigger_input="true" name="horz_fsm:my_horz_fsm|pixel[29]" storage_index="53" tap_mode="classic" trigger_index="53" type="unknown"/>
            <net data_index="52" duplicate_name_allowed="false" is_data_input="true" is_node_valid="true" is_selected="false" is_storage_input="true" is_trigger_input="true" name="horz_fsm:my_horz_fsm|pixel[28]" storage_index="52" tap_mode="classic" trigger_index="52" type="unknown"/>
            <net data_index="51" duplicate_name_allowed="false" is_data_input="true" is_node_valid="true" is_selected="false" is_storage_input="true" is_trigger_input="true" name="horz_fsm:my_horz_fsm|pixel[27]" storage_index="51" tap_mode="classic" trigger_index="51" type="unknown"/>
            <net data_index="50" duplicate_name_allowed="false" is_data_input="true" is_node_valid="true" is_selected="false" is_storage_input="true" is_trigger_input="true" name="horz_fsm:my_horz_fsm|pixel[26]" storage_index="50" tap_mode="classic" trigger_index="50" type="unknown"/>
            <net data_index="49" duplicate_name_allowed="false" is_data_input="true" is_node_valid="true" is_selected="false" is_storage_input="true" is_trigger_input="true" name="horz_fsm:my_horz_fsm|pixel[25]" storage_index="49" tap_mode="classic" trigger_index="49" type="unknown"/>
            <net data_index="48" duplicate_name_allowed="false" is_data_input="true" is_node_valid="true" is_selected="false" is_storage_input="true" is_trigger_input="true" name="horz_fsm:my_horz_fsm|pixel[24]" storage_index="48" tap_mode="classic" trigger_index="48" type="unknown"/>
            <net data_index="47" duplicate_name_allowed="false" is_data_input="true" is_node_valid="true" is_selected="false" is_storage_input="true" is_trigger_input="true" name="horz_fsm:my_horz_fsm|pixel[23]" storage_index="47" tap_mode="classic" trigger_index="47" type="unknown"/>
            <net data_index="46" duplicate_name_allowed="false" is_data_input="true" is_node_valid="true" is_selected="false" is_storage_input="true" is_trigger_input="true" name="horz_fsm:my_horz_fsm|pixel[22]" storage_index="46" tap_mode="classic" trigger_index="46" type="unknown"/>
            <net data_index="45" duplicate_name_allowed="false" is_data_input="true" is_node_valid="true" is_selected="false" is_storage_input="true" is_trigger_input="true" name="horz_fsm:my_horz_fsm|pixel[21]" storage_index="45" tap_mode="classic" trigger_index="45" type="unknown"/>
            <net data_index="44" duplicate_name_allowed="false" is_data_input="true" is_node_valid="true" is_selected="false" is_storage_input="true" is_trigger_input="true" name="horz_fsm:my_horz_fsm|pixel[20]" storage_index="44" tap_mode="classic" trigger_index="44" type="unknown"/>
            <net data_index="42" duplicate_name_allowed="false" is_data_input="true" is_node_valid="true" is_selected="false" is_storage_input="true" is_trigger_input="true" name="horz_fsm:my_horz_fsm|pixel[19]" storage_index="42" tap_mode="classic" trigger_index="42" type="unknown"/>
            <net data_index="41" duplicate_name_allowed="false" is_data_input="true" is_node_valid="true" is_selected="false" is_storage_input="true" is_trigger_input="true" name="horz_fsm:my_horz_fsm|pixel[18]" storage_index="41" tap_mode="classic" trigger_index="41" type="unknown"/>
            <net data_index="40" duplicate_name_allowed="false" is_data_input="true" is_node_valid="true" is_selected="false" is_storage_input="true" is_trigger_input="true" name="horz_fsm:my_horz_fsm|pixel[17]" storage_index="40" tap_mode="classic" trigger_index="40" type="unknown"/>
            <net data_index="39" duplicate_name_allowed="false" is_data_input="true" is_node_valid="true" is_selected="false" is_storage_input="true" is_trigger_input="true" name="horz_fsm:my_horz_fsm|pixel[16]" storage_index="39" tap_mode="classic" trigger_index="39" type="unknown"/>
            <net data_index="38" duplicate_name_allowed="false" is_data_input="true" is_node_valid="true" is_selected="false" is_storage_input="true" is_trigger_input="true" name="horz_fsm:my_horz_fsm|pixel[15]" storage_index="38" tap_mode="classic" trigger_index="38" type="unknown"/>
            <net data_index="37" duplicate_name_allowed="false" is_data_input="true" is_node_valid="true" is_selected="false" is_storage_input="true" is_trigger_input="true" name="horz_fsm:my_horz_fsm|pixel[14]" storage_index="37" tap_mode="classic" trigger_index="37" type="unknown"/>
            <net data_index="36" duplicate_name_allowed="false" is_data_input="true" is_node_valid="true" is_selected="false" is_storage_input="true" is_trigger_input="true" name="horz_fsm:my_horz_fsm|pixel[13]" storage_index="36" tap_mode="classic" trigger_index="36" type="unknown"/>
            <net data_index="35" duplicate_name_allowed="false" is_data_input="true" is_node_valid="true" is_selected="false" is_storage_input="true" is_trigger_input="true" name="horz_fsm:my_horz_fsm|pixel[12]" storage_index="35" tap_mode="classic" trigger_index="35" type="unknown"/>
            <net data_index="34" duplicate_name_allowed="false" is_data_input="true" is_node_valid="true" is_selected="false" is_storage_input="true" is_trigger_input="true" name="horz_fsm:my_horz_fsm|pixel[11]" storage_index="34" tap_mode="classic" trigger_index="34" type="unknown"/>
            <net data_index="33" duplicate_name_allowed="false" is_data_input="true" is_node_valid="true" is_selected="false" is_storage_input="true" is_trigger_input="true" name="horz_fsm:my_horz_fsm|pixel[10]" storage_index="33" tap_mode="classic" trigger_index="33" type="unknown"/>
            <net data_index="62" duplicate_name_allowed="false" is_data_input="true" is_node_valid="true" is_selected="false" is_storage_input="true" is_trigger_input="true" name="horz_fsm:my_horz_fsm|pixel[9]" storage_index="62" tap_mode="classic" trigger_index="62" type="unknown"/>
            <net data_index="61" duplicate_name_allowed="false" is_data_input="true" is_node_valid="true" is_selected="false" is_storage_input="true" is_trigger_input="true" name="horz_fsm:my_horz_fsm|pixel[8]" storage_index="61" tap_mode="classic" trigger_index="61" type="unknown"/>
            <net data_index="60" duplicate_name_allowed="false" is_data_input="true" is_node_valid="true" is_selected="false" is_storage_input="true" is_trigger_input="true" name="horz_fsm:my_horz_fsm|pixel[7]" storage_index="60" tap_mode="classic" trigger_index="60" type="unknown"/>
            <net data_index="59" duplicate_name_allowed="false" is_data_input="true" is_node_valid="true" is_selected="false" is_storage_input="true" is_trigger_input="true" name="horz_fsm:my_horz_fsm|pixel[6]" storage_index="59" tap_mode="classic" trigger_index="59" type="unknown"/>
            <net data_index="58" duplicate_name_allowed="false" is_data_input="true" is_node_valid="true" is_selected="false" is_storage_input="true" is_trigger_input="true" name="horz_fsm:my_horz_fsm|pixel[5]" storage_index="58" tap_mode="classic" trigger_index="58" type="unknown"/>
            <net data_index="57" duplicate_name_allowed="false" is_data_input="true" is_node_valid="true" is_selected="false" is_storage_input="true" is_trigger_input="true" name="horz_fsm:my_horz_fsm|pixel[4]" storage_index="57" tap_mode="classic" trigger_index="57" type="unknown"/>
            <net data_index="56" duplicate_name_allowed="false" is_data_input="true" is_node_valid="true" is_selected="false" is_storage_input="true" is_trigger_input="true" name="horz_fsm:my_horz_fsm|pixel[3]" storage_index="56" tap_mode="classic" trigger_index="56" type="unknown"/>
            <net data_index="54" duplicate_name_allowed="false" is_data_input="true" is_node_valid="true" is_selected="false" is_storage_input="true" is_trigger_input="true" name="horz_fsm:my_horz_fsm|pixel[2]" storage_index="54" tap_mode="classic" trigger_index="54" type="unknown"/>
            <net data_index="43" duplicate_name_allowed="false" is_data_input="true" is_node_valid="true" is_selected="false" is_storage_input="true" is_trigger_input="true" name="horz_fsm:my_horz_fsm|pixel[1]" storage_index="43" tap_mode="classic" trigger_index="43" type="unknown"/>
            <net data_index="32" duplicate_name_allowed="false" is_data_input="true" is_node_valid="true" is_selected="false" is_storage_input="true" is_trigger_input="true" name="horz_fsm:my_horz_fsm|pixel[0]" storage_index="32" tap_mode="classic" trigger_index="32" type="unknown"/>
          </bus>
          <net data_index="63" duplicate_name_allowed="false" is_data_input="true" is_node_valid="true" is_selected="false" is_storage_input="true" is_trigger_input="true" level-0="rising edge" name="vert_fsm:my_vert_fsm|cstate.v_pixels" storage_index="63" tap_mode="classic" trigger_index="63" type="unknown"/>
        </data_view>
        <setup_view>
          <net data_index="31" duplicate_name_allowed="false" is_data_input="true" is_node_valid="true" is_selected="false" is_storage_input="true" is_trigger_input="true" level-0="dont_care" name="horz_fsm:my_horz_fsm|cstate.h_pixels" storage_index="31" tap_mode="classic" trigger_index="31" type="unknown"/>
          <bus is_selected="false" level-0="alt_or" name="horz_fsm:my_horz_fsm|ROW_NUM[30..0]" order="msb_to_lsb" radix="unsigned_dec" type="combinatorial">
            <net data_index="23" duplicate_name_allowed="false" is_data_input="true" is_node_valid="true" is_selected="false" is_storage_input="true" is_trigger_input="true" name="horz_fsm:my_horz_fsm|ROW_NUM[30]" storage_index="23" tap_mode="classic" trigger_index="23" type="unknown"/>
            <net data_index="21" duplicate_name_allowed="false" is_data_input="true" is_node_valid="true" is_selected="false" is_storage_input="true" is_trigger_input="true" name="horz_fsm:my_horz_fsm|ROW_NUM[29]" storage_index="21" tap_mode="classic" trigger_index="21" type="unknown"/>
            <net data_index="20" duplicate_name_allowed="false" is_data_input="true" is_node_valid="true" is_selected="false" is_storage_input="true" is_trigger_input="true" name="horz_fsm:my_horz_fsm|ROW_NUM[28]" storage_index="20" tap_mode="classic" trigger_index="20" type="unknown"/>
            <net data_index="19" duplicate_name_allowed="false" is_data_input="true" is_node_valid="true" is_selected="false" is_storage_input="true" is_trigger_input="true" name="horz_fsm:my_horz_fsm|ROW_NUM[27]" storage_index="19" tap_mode="classic" trigger_index="19" type="unknown"/>
            <net data_index="18" duplicate_name_allowed="false" is_data_input="true" is_node_valid="true" is_selected="false" is_storage_input="true" is_trigger_input="true" name="horz_fsm:my_horz_fsm|ROW_NUM[26]" storage_index="18" tap_mode="classic" trigger_index="18" type="unknown"/>
            <net data_index="17" duplicate_name_allowed="false" is_data_input="true" is_node_valid="true" is_selected="false" is_storage_input="true" is_trigger_input="true" name="horz_fsm:my_horz_fsm|ROW_NUM[25]" storage_index="17" tap_mode="classic" trigger_index="17" type="unknown"/>
            <net data_index="16" duplicate_name_allowed="false" is_data_input="true" is_node_valid="true" is_selected="false" is_storage_input="true" is_trigger_input="true" name="horz_fsm:my_horz_fsm|ROW_NUM[24]" storage_index="16" tap_mode="classic" trigger_index="16" type="unknown"/>
            <net data_index="15" duplicate_name_allowed="false" is_data_input="true" is_node_valid="true" is_selected="false" is_storage_input="true" is_trigger_input="true" name="horz_fsm:my_horz_fsm|ROW_NUM[23]" storage_index="15" tap_mode="classic" trigger_index="15" type="unknown"/>
            <net data_index="14" duplicate_name_allowed="false" is_data_input="true" is_node_valid="true" is_selected="false" is_storage_input="true" is_trigger_input="true" name="horz_fsm:my_horz_fsm|ROW_NUM[22]" storage_index="14" tap_mode="classic" trigger_index="14" type="unknown"/>
            <net data_index="13" duplicate_name_allowed="false" is_data_input="true" is_node_valid="true" is_selected="false" is_storage_input="true" is_trigger_input="true" name="horz_fsm:my_horz_fsm|ROW_NUM[21]" storage_index="13" tap_mode="classic" trigger_index="13" type="unknown"/>
            <net data_index="12" duplicate_name_allowed="false" is_data_input="true" is_node_valid="true" is_selected="false" is_storage_input="true" is_trigger_input="true" name="horz_fsm:my_horz_fsm|ROW_NUM[20]" storage_index="12" tap_mode="classic" trigger_index="12" type="unknown"/>
            <net data_index="10" duplicate_name_allowed="false" is_data_input="true" is_node_valid="true" is_selected="false" is_storage_input="true" is_trigger_input="true" name="horz_fsm:my_horz_fsm|ROW_NUM[19]" storage_index="10" tap_mode="classic" trigger_index="10" type="unknown"/>
            <net data_index="9" duplicate_name_allowed="false" is_data_input="true" is_node_valid="true" is_selected="false" is_storage_input="true" is_trigger_input="true" name="horz_fsm:my_horz_fsm|ROW_NUM[18]" storage_index="9" tap_mode="classic" trigger_index="9" type="unknown"/>
            <net data_index="8" duplicate_name_allowed="false" is_data_input="true" is_node_valid="true" is_selected="false" is_storage_input="true" is_trigger_input="true" name="horz_fsm:my_horz_fsm|ROW_NUM[17]" storage_index="8" tap_mode="classic" trigger_index="8" type="unknown"/>
            <net data_index="7" duplicate_name_allowed="false" is_data_input="true" is_node_valid="true" is_selected="false" is_storage_input="true" is_trigger_input="true" name="horz_fsm:my_horz_fsm|ROW_NUM[16]" storage_index="7" tap_mode="classic" trigger_index="7" type="unknown"/>
            <net data_index="6" duplicate_name_allowed="false" is_data_input="true" is_node_valid="true" is_selected="false" is_storage_input="true" is_trigger_input="true" name="horz_fsm:my_horz_fsm|ROW_NUM[15]" storage_index="6" tap_mode="classic" trigger_index="6" type="unknown"/>
            <net data_index="5" duplicate_name_allowed="false" is_data_input="true" is_node_valid="true" is_selected="false" is_storage_input="true" is_trigger_input="true" name="horz_fsm:my_horz_fsm|ROW_NUM[14]" storage_index="5" tap_mode="classic" trigger_index="5" type="unknown"/>
            <net data_index="4" duplicate_name_allowed="false" is_data_input="true" is_node_valid="true" is_selected="false" is_storage_input="true" is_trigger_input="true" name="horz_fsm:my_horz_fsm|ROW_NUM[13]" storage_index="4" tap_mode="classic" trigger_index="4" type="unknown"/>
            <net data_index="3" duplicate_name_allowed="false" is_data_input="true" is_node_valid="true" is_selected="false" is_storage_input="true" is_trigger_input="true" name="horz_fsm:my_horz_fsm|ROW_NUM[12]" storage_index="3" tap_mode="classic" trigger_index="3" type="unknown"/>
            <net data_index="2" duplicate_name_allowed="false" is_data_input="true" is_node_valid="true" is_selected="false" is_storage_input="true" is_trigger_input="true" name="horz_fsm:my_horz_fsm|ROW_NUM[11]" storage_index="2" tap_mode="classic" trigger_index="2" type="unknown"/>
            <net data_index="1" duplicate_name_allowed="false" is_data_input="true" is_node_valid="true" is_selected="false" is_storage_input="true" is_trigger_input="true" name="horz_fsm:my_horz_fsm|ROW_NUM[10]" storage_index="1" tap_mode="classic" trigger_index="1" type="unknown"/>
            <net data_index="30" duplicate_name_allowed="false" is_data_input="true" is_node_valid="true" is_selected="false" is_storage_input="true" is_trigger_input="true" name="horz_fsm:my_horz_fsm|ROW_NUM[9]" storage_index="30" tap_mode="classic" trigger_index="30" type="unknown"/>
            <net data_index="29" duplicate_name_allowed="false" is_data_input="true" is_node_valid="true" is_selected="false" is_storage_input="true" is_trigger_input="true" name="horz_fsm:my_horz_fsm|ROW_NUM[8]" storage_index="29" tap_mode="classic" trigger_index="29" type="unknown"/>
            <net data_index="28" duplicate_name_allowed="false" is_data_input="true" is_node_valid="true" is_selected="false" is_storage_input="true" is_trigger_input="true" name="horz_fsm:my_horz_fsm|ROW_NUM[7]" storage_index="28" tap_mode="classic" trigger_index="28" type="unknown"/>
            <net data_index="27" duplicate_name_allowed="false" is_data_input="true" is_node_valid="true" is_selected="false" is_storage_input="true" is_trigger_input="true" name="horz_fsm:my_horz_fsm|ROW_NUM[6]" storage_index="27" tap_mode="classic" trigger_index="27" type="unknown"/>
            <net data_index="26" duplicate_name_allowed="false" is_data_input="true" is_node_valid="true" is_selected="false" is_storage_input="true" is_trigger_input="true" name="horz_fsm:my_horz_fsm|ROW_NUM[5]" storage_index="26" tap_mode="classic" trigger_index="26" type="unknown"/>
            <net data_index="25" duplicate_name_allowed="false" is_data_input="true" is_node_valid="true" is_selected="false" is_storage_input="true" is_trigger_input="true" name="horz_fsm:my_horz_fsm|ROW_NUM[4]" storage_index="25" tap_mode="classic" trigger_index="25" type="unknown"/>
            <net data_index="24" duplicate_name_allowed="false" is_data_input="true" is_node_valid="true" is_selected="false" is_storage_input="true" is_trigger_input="true" name="horz_fsm:my_horz_fsm|ROW_NUM[3]" storage_index="24" tap_mode="classic" trigger_index="24" type="unknown"/>
            <net data_index="22" duplicate_name_allowed="false" is_data_input="true" is_node_valid="true" is_selected="false" is_storage_input="true" is_trigger_input="true" name="horz_fsm:my_horz_fsm|ROW_NUM[2]" storage_index="22" tap_mode="classic" trigger_index="22" type="unknown"/>
            <net data_index="11" duplicate_name_allowed="false" is_data_input="true" is_node_valid="true" is_selected="false" is_storage_input="true" is_trigger_input="true" name="horz_fsm:my_horz_fsm|ROW_NUM[1]" storage_index="11" tap_mode="classic" trigger_index="11" type="unknown"/>
            <net data_index="0" duplicate_name_allowed="false" is_data_input="true" is_node_valid="true" is_selected="false" is_storage_input="true" is_trigger_input="true" name="horz_fsm:my_horz_fsm|ROW_NUM[0]" storage_index="0" tap_mode="classic" trigger_index="0" type="unknown"/>
          </bus>
          <bus is_selected="false" level-0="alt_or" name="horz_fsm:my_horz_fsm|pixel[30..0]" order="msb_to_lsb" radix="unsigned_dec" type="register">
            <net data_index="55" duplicate_name_allowed="false" is_data_input="true" is_node_valid="true" is_selected="false" is_storage_input="true" is_trigger_input="true" name="horz_fsm:my_horz_fsm|pixel[30]" storage_index="55" tap_mode="classic" trigger_index="55" type="unknown"/>
            <net data_index="53" duplicate_name_allowed="false" is_data_input="true" is_node_valid="true" is_selected="false" is_storage_input="true" is_trigger_input="true" name="horz_fsm:my_horz_fsm|pixel[29]" storage_index="53" tap_mode="classic" trigger_index="53" type="unknown"/>
            <net data_index="52" duplicate_name_allowed="false" is_data_input="true" is_node_valid="true" is_selected="false" is_storage_input="true" is_trigger_input="true" name="horz_fsm:my_horz_fsm|pixel[28]" storage_index="52" tap_mode="classic" trigger_index="52" type="unknown"/>
            <net data_index="51" duplicate_name_allowed="false" is_data_input="true" is_node_valid="true" is_selected="false" is_storage_input="true" is_trigger_input="true" name="horz_fsm:my_horz_fsm|pixel[27]" storage_index="51" tap_mode="classic" trigger_index="51" type="unknown"/>
            <net data_index="50" duplicate_name_allowed="false" is_data_input="true" is_node_valid="true" is_selected="false" is_storage_input="true" is_trigger_input="true" name="horz_fsm:my_horz_fsm|pixel[26]" storage_index="50" tap_mode="classic" trigger_index="50" type="unknown"/>
            <net data_index="49" duplicate_name_allowed="false" is_data_input="true" is_node_valid="true" is_selected="false" is_storage_input="true" is_trigger_input="true" name="horz_fsm:my_horz_fsm|pixel[25]" storage_index="49" tap_mode="classic" trigger_index="49" type="unknown"/>
            <net data_index="48" duplicate_name_allowed="false" is_data_input="true" is_node_valid="true" is_selected="false" is_storage_input="true" is_trigger_input="true" name="horz_fsm:my_horz_fsm|pixel[24]" storage_index="48" tap_mode="classic" trigger_index="48" type="unknown"/>
            <net data_index="47" duplicate_name_allowed="false" is_data_input="true" is_node_valid="true" is_selected="false" is_storage_input="true" is_trigger_input="true" name="horz_fsm:my_horz_fsm|pixel[23]" storage_index="47" tap_mode="classic" trigger_index="47" type="unknown"/>
            <net data_index="46" duplicate_name_allowed="false" is_data_input="true" is_node_valid="true" is_selected="false" is_storage_input="true" is_trigger_input="true" name="horz_fsm:my_horz_fsm|pixel[22]" storage_index="46" tap_mode="classic" trigger_index="46" type="unknown"/>
            <net data_index="45" duplicate_name_allowed="false" is_data_input="true" is_node_valid="true" is_selected="false" is_storage_input="true" is_trigger_input="true" name="horz_fsm:my_horz_fsm|pixel[21]" storage_index="45" tap_mode="classic" trigger_index="45" type="unknown"/>
            <net data_index="44" duplicate_name_allowed="false" is_data_input="true" is_node_valid="true" is_selected="false" is_storage_input="true" is_trigger_input="true" name="horz_fsm:my_horz_fsm|pixel[20]" storage_index="44" tap_mode="classic" trigger_index="44" type="unknown"/>
            <net data_index="42" duplicate_name_allowed="false" is_data_input="true" is_node_valid="true" is_selected="false" is_storage_input="true" is_trigger_input="true" name="horz_fsm:my_horz_fsm|pixel[19]" storage_index="42" tap_mode="classic" trigger_index="42" type="unknown"/>
            <net data_index="41" duplicate_name_allowed="false" is_data_input="true" is_node_valid="true" is_selected="false" is_storage_input="true" is_trigger_input="true" name="horz_fsm:my_horz_fsm|pixel[18]" storage_index="41" tap_mode="classic" trigger_index="41" type="unknown"/>
            <net data_index="40" duplicate_name_allowed="false" is_data_input="true" is_node_valid="true" is_selected="false" is_storage_input="true" is_trigger_input="true" name="horz_fsm:my_horz_fsm|pixel[17]" storage_index="40" tap_mode="classic" trigger_index="40" type="unknown"/>
            <net data_index="39" duplicate_name_allowed="false" is_data_input="true" is_node_valid="true" is_selected="false" is_storage_input="true" is_trigger_input="true" name="horz_fsm:my_horz_fsm|pixel[16]" storage_index="39" tap_mode="classic" trigger_index="39" type="unknown"/>
            <net data_index="38" duplicate_name_allowed="false" is_data_input="true" is_node_valid="true" is_selected="false" is_storage_input="true" is_trigger_input="true" name="horz_fsm:my_horz_fsm|pixel[15]" storage_index="38" tap_mode="classic" trigger_index="38" type="unknown"/>
            <net data_index="37" duplicate_name_allowed="false" is_data_input="true" is_node_valid="true" is_selected="false" is_storage_input="true" is_trigger_input="true" name="horz_fsm:my_horz_fsm|pixel[14]" storage_index="37" tap_mode="classic" trigger_index="37" type="unknown"/>
            <net data_index="36" duplicate_name_allowed="false" is_data_input="true" is_node_valid="true" is_selected="false" is_storage_input="true" is_trigger_input="true" name="horz_fsm:my_horz_fsm|pixel[13]" storage_index="36" tap_mode="classic" trigger_index="36" type="unknown"/>
            <net data_index="35" duplicate_name_allowed="false" is_data_input="true" is_node_valid="true" is_selected="false" is_storage_input="true" is_trigger_input="true" name="horz_fsm:my_horz_fsm|pixel[12]" storage_index="35" tap_mode="classic" trigger_index="35" type="unknown"/>
            <net data_index="34" duplicate_name_allowed="false" is_data_input="true" is_node_valid="true" is_selected="false" is_storage_input="true" is_trigger_input="true" name="horz_fsm:my_horz_fsm|pixel[11]" storage_index="34" tap_mode="classic" trigger_index="34" type="unknown"/>
            <net data_index="33" duplicate_name_allowed="false" is_data_input="true" is_node_valid="true" is_selected="false" is_storage_input="true" is_trigger_input="true" name="horz_fsm:my_horz_fsm|pixel[10]" storage_index="33" tap_mode="classic" trigger_index="33" type="unknown"/>
            <net data_index="62" duplicate_name_allowed="false" is_data_input="true" is_node_valid="true" is_selected="false" is_storage_input="true" is_trigger_input="true" name="horz_fsm:my_horz_fsm|pixel[9]" storage_index="62" tap_mode="classic" trigger_index="62" type="unknown"/>
            <net data_index="61" duplicate_name_allowed="false" is_data_input="true" is_node_valid="true" is_selected="false" is_storage_input="true" is_trigger_input="true" name="horz_fsm:my_horz_fsm|pixel[8]" storage_index="61" tap_mode="classic" trigger_index="61" type="unknown"/>
            <net data_index="60" duplicate_name_allowed="false" is_data_input="true" is_node_valid="true" is_selected="false" is_storage_input="true" is_trigger_input="true" name="horz_fsm:my_horz_fsm|pixel[7]" storage_index="60" tap_mode="classic" trigger_index="60" type="unknown"/>
            <net data_index="59" duplicate_name_allowed="false" is_data_input="true" is_node_valid="true" is_selected="false" is_storage_input="true" is_trigger_input="true" name="horz_fsm:my_horz_fsm|pixel[6]" storage_index="59" tap_mode="classic" trigger_index="59" type="unknown"/>
            <net data_index="58" duplicate_name_allowed="false" is_data_input="true" is_node_valid="true" is_selected="false" is_storage_input="true" is_trigger_input="true" name="horz_fsm:my_horz_fsm|pixel[5]" storage_index="58" tap_mode="classic" trigger_index="58" type="unknown"/>
            <net data_index="57" duplicate_name_allowed="false" is_data_input="true" is_node_valid="true" is_selected="false" is_storage_input="true" is_trigger_input="true" name="horz_fsm:my_horz_fsm|pixel[4]" storage_index="57" tap_mode="classic" trigger_index="57" type="unknown"/>
            <net data_index="56" duplicate_name_allowed="false" is_data_input="true" is_node_valid="true" is_selected="false" is_storage_input="true" is_trigger_input="true" name="horz_fsm:my_horz_fsm|pixel[3]" storage_index="56" tap_mode="classic" trigger_index="56" type="unknown"/>
            <net data_index="54" duplicate_name_allowed="false" is_data_input="true" is_node_valid="true" is_selected="false" is_storage_input="true" is_trigger_input="true" name="horz_fsm:my_horz_fsm|pixel[2]" storage_index="54" tap_mode="classic" trigger_index="54" type="unknown"/>
            <net data_index="43" duplicate_name_allowed="false" is_data_input="true" is_node_valid="true" is_selected="false" is_storage_input="true" is_trigger_input="true" name="horz_fsm:my_horz_fsm|pixel[1]" storage_index="43" tap_mode="classic" trigger_index="43" type="unknown"/>
            <net data_index="32" duplicate_name_allowed="false" is_data_input="true" is_node_valid="true" is_selected="false" is_storage_input="true" is_trigger_input="true" name="horz_fsm:my_horz_fsm|pixel[0]" storage_index="32" tap_mode="classic" trigger_index="32" type="unknown"/>
          </bus>
          <net data_index="63" duplicate_name_allowed="false" is_data_input="true" is_node_valid="true" is_selected="false" is_storage_input="true" is_trigger_input="true" level-0="rising edge" name="vert_fsm:my_vert_fsm|cstate.v_pixels" storage_index="63" tap_mode="classic" trigger_index="63" type="unknown"/>
        </setup_view>
        <trigger_in_editor/>
        <trigger_out_editor/>
      </presentation>
      <trigger CRC="77087F0D" attribute_mem_mode="false" gap_record="true" global_temp="1" is_expanded="true" name="trigger: 2018/11/27 16:03:49  #1" position="pre" power_up_trigger_mode="false" record_data_gap="true" segment_size="256" storage_mode="off" storage_qualifier_disabled="no" storage_qualifier_port_is_pin="true" storage_qualifier_port_name="auto_stp_external_storage_qualifier" storage_qualifier_port_tap_mode="classic" trigger_type="circular">
        <power_up_trigger position="pre" storage_qualifier_disabled="no"/>
        <events use_custom_flow_control="no">
          <level enabled="yes" name="condition1" type="basic">'vert_fsm:my_vert_fsm|cstate.v_pixels' == rising edge
            <power_up enabled="yes">
            </power_up>
            <op_node/>
          </level>
        </events>
        <storage_qualifier_events>
          <transitional>1111111111111111111111111111111111111111111111111111111111111111
            <pwr_up_transitional>1111111111111111111111111111111111111111111111111111111111111111</pwr_up_transitional>
          </transitional>
          <storage_qualifier_level type="basic">
            <power_up>
            </power_up>
            <op_node/>
          </storage_qualifier_level>
          <storage_qualifier_level type="basic">
            <power_up>
            </power_up>
            <op_node/>
          </storage_qualifier_level>
          <storage_qualifier_level type="basic">
            <power_up>
            </power_up>
            <op_node/>
          </storage_qualifier_level>
        </storage_qualifier_events>
      </trigger>
    </signal_set>
    <position_info>
      <single attribute="active tab" value="0"/>
      <single attribute="data horizontal scroll position" value="0"/>
      <single attribute="data vertical scroll position" value="0"/>
      <single attribute="setup horizontal scroll position" value="0"/>
      <single attribute="setup vertical scroll position" value="0"/>
      <single attribute="zoom level denominator" value="1"/>
      <single attribute="zoom level numerator" value="1"/>
      <single attribute="zoom offset denominator" value="1"/>
      <single attribute="zoom offset numerator" value="130048"/>
    </position_info>
  </instance>
  <mnemonics/>
  <static_plugin_mnemonics/>
  <global_info>
    <single attribute="active instance" value="0"/>
    <single attribute="config widget visible" value="1"/>
    <single attribute="data log widget visible" value="1"/>
    <single attribute="hierarchy widget visible" value="1"/>
    <single attribute="instance widget visible" value="1"/>
    <single attribute="jtag widget visible" value="1"/>
    <single attribute="lock mode" value="0"/>
    <multi attribute="frame size" size="2" value="1366,705"/>
    <multi attribute="jtag widget size" size="2" value="348,135"/>
  </global_info>
</session>
